<svg width="24" height="24" viewBox="0 0 24 24" xmlns="http://www.w3.org/2000/svg">
  <path
    d="M3 12a9 9 0 0 1 9-9 9 9 0 0 1 9 9 9 9 0 0 1-9 9 9 9 0 0 1-9-9Zm1 0c0 2.21.781 4.095 2.343 5.657C7.905 19.22 9.791 20 12 20c2.21 0 4.095-.78 5.657-2.343C19.219 16.095 20 14.21 20 12s-.78-4.095-2.343-5.657C16.095 4.78 14.209 4 12 4c-2.21 0-4.095.78-5.657 2.343C4.781 7.903 4 9.79 4 12Zm8.5.39V7.75a.724.724 0 0 0-.22-.53.724.724 0 0 0-.53-.22.724.724 0 0 0-.53.22.723.723 0 0 0-.22.53v5.36l2.781 2.225a.744.744 0 0 0 .83.072.738.738 0 0 0 .225-.188.725.725 0 0 0 .16-.552.722.722 0 0 0-.277-.502l-.95-.76L12.5 12.39Z"
    fill="#FFF" fill-rule="evenodd" />
</svg>
