<svg xmlns="http://www.w3.org/2000/svg" viewbox="0 0 32 32">
  <path
    d="M16 7.17a2.998 2.998 0 0 1 3.529 1.215 2.998 2.998 0 0 1 4 1A3 3 0 0 1 28 12v7.001c0 2.103-.94 4.16-2.772 6.162l-.228.244V29a1 1 0 0 1-.883.993L24 30H11a1 1 0 0 1-1-1v-2.59l-.19-.193a28.018 28.018 0 0 1-3.317-4.148l-.345-.545c-.932-1.515-2.034-3.663-3.311-6.451a3.127 3.127 0 0 1 1.108-3.905 2.818 2.818 0 0 1 3.88.741l.427.61.437.611c.494.682.931 1.251 1.31 1.707L10 3a3 3 0 0 1 6 0v4.17ZM14 3a1 1 0 0 0-2 0v14a1 1 0 0 1-1 1l-.101-.004c-1.086-.088-2.395-1.591-4.719-4.949a.818.818 0 0 0-1.125-.215c-.461.307-.63.904-.4 1.408l.433.933c1.062 2.268 1.985 4.037 2.764 5.303 1.04 1.689 2.323 3.294 3.853 4.815A1 1 0 0 1 12 26v2h11v-3a1 1 0 0 1 .206-.608l.087-.1C25.12 22.467 26 20.706 26 19v-7a1 1 0 0 0-2 0v2a1 1 0 0 1-2 0v-3a1 1 0 0 0-2 0v3a1 1 0 0 1-2 0v-4a1 1 0 0 0-2 0v4a1 1 0 0 1-2 0V3Z" />
</svg>
