{{- define "response" -}}
  {{- $indexedPages := slice -}}

  {{- range .Site.Pages -}}
    {{- $currentPage := . -}}
    {{- $defaultPage := partial "functions/get-default-lang-page" $currentPage -}}
    {{- $item := dict
      "title"         (cond (eq $currentPage.Params.Title nil) $defaultPage.Params.Title $currentPage.Params.Title)
      "section"       $defaultPage.Section
      "tags"          (cond (eq $currentPage.Params.Tags nil) (cond (eq $defaultPage.Params.Tags nil) (slice) $defaultPage.Params.Tags) $currentPage.Params.Tags)
      "relPermalink"  $currentPage.RelPermalink
      "excerpt"       (cond (eq $currentPage.Params.Excerpt nil) $defaultPage.Params.Excerpt $currentPage.Params.Excerpt)
    -}}
    {{- if ne $item.section "news" -}}

      {{- if $item.excerpt -}}
        {{- $indexedPages = $indexedPages | append $item -}}
      {{- end -}}
    {{- end -}}

  {{- end -}}

  {{- range .Site.Sections -}}
    {{- $currentPage := . -}}
    {{- $defaultPage := partial "functions/get-default-lang-page" $currentPage -}}
    {{- if .Params.Excerpt -}}
      {{- $item := dict
        "title"         (cond (eq $currentPage.Params.Title nil) $defaultPage.Params.Title $currentPage.Params.Title)
        "kind"          .Kind
        "section"       .Section
        "tags"          .Params.Tags
        "relPermalink"  .RelPermalink
        "excerpt"       .Params.Excerpt
      -}}
      {{- $indexedPages = $indexedPages | append $item -}}
    {{- end -}}
  {{- end -}}

  {{- if (eq site.Params.search_minify true) -}}
    {{- $indexedPages | jsonify -}}
  {{- else -}}
    {{- $jsonifyOptions := dict "indent" "  " -}}
    {{- $indexedPages | jsonify $jsonifyOptions -}}
  {{- end -}}
{{- end -}}
