<?xml version="1.0" encoding="UTF-8"?>
<svg width="16px" height="16px" viewBox="0 0 16 16" version="1.1" xmlns="http://www.w3.org/2000/svg" xmlns:xlink="http://www.w3.org/1999/xlink">
    <title>warning</title>
    <g id="warning" stroke="none" stroke-width="1" fill="none" fill-rule="evenodd">
        <path d="M6.62589818,0.840906824 L0.154118157,13.8535159 C-0.214836027,14.5953608 0.101351661,15.4890843 0.860343124,15.8497033 C1.06850683,15.948608 1.29693819,16 1.52839377,16 L14.4719538,16 C15.3158704,16 16,15.3313258 16,14.5064744 C16,14.2802477 15.9474201,14.0569769 15.8462294,13.8535159 L9.37444941,0.840906824 C9.00549522,0.0990619919 8.09111461,-0.209982594 7.33212315,0.150636422 C7.02425537,0.296913395 6.77555613,0.539994192 6.62589818,0.840906824 Z" id="Path-2" fill="#FFB953"></path>
        <path d="M8,4 C8.55228475,4 9,4.44771525 9,5 L9,10 C9,10.5522847 8.55228475,11 8,11 C7.44771525,11 7,10.5522847 7,10 L7,5 C7,4.44771525 7.44771525,4 8,4 Z" id="Line" fill="#FFFFFF" fill-rule="nonzero"></path>
        <circle id="Oval" fill="#FFFFFF" cx="8" cy="13.25" r="1.25"></circle>
    </g>
</svg>